…
The data-frame above contains a column for `season`, and one for
`ratings`. There are only two rows, but each rating is a vector of
multiple ratings; the first containing 8, and the second 22. Together
these represent all 30 episodes, and we can view the whole set easily
via the `unnest` function, which will expand or “un-nest” the vectors
for us.

```r
ratings <- ratings %>%
  unnest()

ratings
```

    ## # A tibble: 30 x 2
    ##    season   ratings
    ##    <chr>      <dbl>
    ##  1 Season 1     8.9
    ##  2 Season 1     8.4
    ##  3 Season 1     9
    ##  4 Season 1     8.4
    ##  5 Season 1     8.3
    ##  6 Season 1     8.6
    ##  7 Season 1     8.6
    ##  8 Season 1     9.1
    ##  9 Season 2     9
    ## 10 Season 2     8.7
    ## # … with 20 more rows

Finally, we can combine these two sets of values —the titles and the
ratings —into their own table that we can then use to make our
visualization.

```r
twin_peaks_episodes <- tibble(title = episode_titles,
                              season = ratings$season,
                              rating = ratings$ratings)

twin_peaks_episodes
```

    ## # A tibble: 30 x 3
    ##    title                               season   rating
    ##    <chr>                               <chr>     <dbl>
    ##  1 Northwest Passage                   Season 1    8.9
    ##  2 Traces to Nowhere                   Season 1    8.4
    ##  3 Zen, or the Skill to Catch a Killer Season 1    9
    ##  4 Rest in Pain                        Season 1    8.4
    ##  5 The One-Armed Man                   Season 1    8.3
    ##  6 Cooper's Dreams                     Season 1    8.6
    ##  7 Realization Time                    Season 1    8.6
    ##  8 The Last Evening                    Season 1    9.1
    ##  9 May the Giant Be With You           Season 2    9
    ## 10 Coma                                Season 2    8.7
    ## # … with 20 more rows
…
The list above is exactly what we need\! Now that we’ve isolated the
characters for all 30 episodes of Twin Peaks, we can add them to our
table of episode data as a new column named `characters`. The `mutate`
function will create a new column from the data that we pass to it —the
`characters` list, in this case.

```r
twin_peaks_episodes <- twin_peaks_episodes %>%
  mutate(characters)

twin_peaks_episodes
```

    ## # A tibble: 30 x 4
    ##    title                               season   rating characters
    ##    <chr>                               <chr>     <dbl> <list>
    ##  1 Northwest Passage                   Season 1    8.9 <chr [54]>
    ##  2 Traces to Nowhere                   Season 1    8.4 <chr [33]>
    ##  3 Zen, or the Skill to Catch a Killer Season 1    9   <chr [37]>
    ##  4 Rest in Pain                        Season 1    8.4 <chr [38]>
    ##  5 The One-Armed Man                   Season 1    8.3 <chr [31]>
    ##  6 Cooper's Dreams                     Season 1    8.6 <chr [32]>
    ##  7 Realization Time                    Season 1    8.6 <chr [38]>
    ##  8 The Last Evening                    Season 1    9.1 <chr [32]>
    ##  9 May the Giant Be With You           Season 2    9   <chr [40]>
    ## 10 Coma                                Season 2    8.7 <chr [30]>
    ## # … with 20 more rows
…
```r
all_character_appearances <- twin_peaks_episodes %>%
  unnest()

all_character_appearances
```

    ## # A tibble: 955 x 4
    ##    title             season   rating characters
    ##    <chr>             <chr>     <dbl> <chr>
    ##  1 Northwest Passage Season 1    8.9 Special Agent Dale Cooper
    ##  2 Northwest Passage Season 1    8.9 Sheriff Harry S. Truman
    ##  3 Northwest Passage Season 1    8.9 Shelly Johnson
    ##  4 Northwest Passage Season 1    8.9 Bobby Briggs
    ##  5 Northwest Passage Season 1    8.9 Benjamin Horne
    ##  6 Northwest Passage Season 1    8.9 Donna Hayward
    ##  7 Northwest Passage Season 1    8.9 Audrey Horne
    ##  8 Northwest Passage Season 1    8.9 Dr. Will Hayward
    ##  9 Northwest Passage Season 1    8.9 Norma Jennings
    ## 10 Northwest Passage Season 1    8.9 James Hurley
    ## # … with 945 more rows
…
We’ll use `summarize` to count the number of episodes that each
character appears in, and to return a tibble of all 189 characters and
the number of appearances for each.

```r
appearances_per_character <- all_character_appearances %>%
  group_by(characters) %>%
  summarise(total_appearances = n()) %>%
  arrange(desc(total_appearances))

appearances_per_character
```

    ## # A tibble: 189 x 2
    ##    characters                   total_appearances
    ##    <chr>                                    <int>
    ##  1 Benjamin Horne                              30
    ##  2 Donna Hayward                               30
    ##  3 Sheriff Harry S. Truman                     30
    ##  4 Special Agent Dale Cooper                   30
    ##  5 Audrey Horne                                28
    ##  6 "Deputy Tommy \"Hawk\" Hill"                28
    ##  7 Deputy Andy Brennan                         26
    ##  8 Dr. Will Hayward                            26
    ##  9 Shelly Johnson                              26
    ## 10 Bobby Briggs                                25
    ## # … with 179 more rows
…
```r
frequently_appearing_characters <- appearances_per_character %>%
  filter(total_appearances > 10)

frequently_appearing_characters
```

    ## # A tibble: 29 x 2
    ##    characters                   total_appearances
    ##    <chr>                                    <int>
    ##  1 Benjamin Horne                              30
    ##  2 Donna Hayward                               30
    ##  3 Sheriff Harry S. Truman                     30
    ##  4 Special Agent Dale Cooper                   30
    ##  5 Audrey Horne                                28
    ##  6 "Deputy Tommy \"Hawk\" Hill"                28
    ##  7 Deputy Andy Brennan                         26
    ##  8 Dr. Will Hayward                            26
    ##  9 Shelly Johnson                              26
    ## 10 Bobby Briggs                                25
    ## # … with 19 more rows
…
